index.utf8
…
For this research project, I selected to use an insurance dataset that included factors such as Age, Sex, BMI, Number of Children, Smoker, and Region. These variables are an important component as to how insurance companies determine the health condition of persons requesting for coverage in order to determine premiums. I chose this dataset because I was especially interested in what types of big data health insurance use to determine charges, and how linear regression/machine learning and further data analysis might be able to predict the premiums that specific groups would pay.

library(tidyverse)
library(dplyr)
insurance <- read_csv(file = "/stor/home/art2976/insurance.csv")

# I changed the smoker variables to binary where '1' = yes,
# and '0' = no.

tidy_insurance <- insurance %>% mutate(smoker = ifelse(smoker == 
    "no", 0, 1))

tidy_insurance

## # A tibble: 1,338 x 7
##      age sex      bmi children smoker region    charges
##    <dbl> <chr>  <dbl>    <dbl>  <dbl> <chr>       <dbl>
##  1    19 female  27.9        0      1 southwest  16885.
##  2    18 male    33.8        1      0 southeast   1726.
##  3    28 male    33          3      0 southeast   4449.
##  4    33 male    22.7        0      0 northwest  21984.
##  5    32 male    28.9        0      0 northwest   3867.
##  6    31 female  25.7        0      0 southeast   3757.
##  7    46 female  33.4        1      0 southeast   8241.
##  8    37 female  27.7        3      0 northwest   7282.
##  9    37 male    29.8        2      0 northeast   6406.
## 10    60 female  25.8        0      0 northwest  28923.
## #  with 1,328 more rows
…
